<svg xmlns="http://www.w3.org/2000/svg" viewBox="0 0 9 7">
<style type="text/css">
	.st0{fill:#44525F;}
</style>
<path class="st0" d="M4,7C3.7,7,3.5,6.9,3.3,6.7l-3-3c-0.4-0.4-0.4-1,0-1.4s1-0.4,1.4,0l2.2,2.2l3.3-4.1c0.3-0.4,1-0.5,1.4-0.2c0.4,0.3,0.5,1,0.2,1.4l-4,5C4.6,6.8,4.3,7,4,7C4,7,4,7,4,7z"/>
</svg>
