<svg xmlns="http://www.w3.org/2000/svg" viewBox="0 0 24 24">
	<path fill="#fff" d="M21.3,21.6c0.2,0.5-0.1,1.1-0.6,1.3c-0.1,0-0.2,0.1-0.3,0.1c-0.4,0-0.8-0.3-0.9-0.7c-1.3-4.1-5.7-6.4-9.8-5.1c-2.5,0.8-4.4,2.7-5.1,5.1c-0.2,0.5-0.7,0.8-1.2,0.6c0,0,0,0,0,0c-0.5-0.2-0.8-0.8-0.6-1.3c0.9-2.7,2.8-4.9,5.4-6c-2.3-1.4-3.7-4-3.7-6.7c-0.1-4.2,3.2-7.7,7.4-7.8s7.7,3.2,7.8,7.4c0,0.1,0,0.3,0,0.4c0,2.7-1.4,5.2-3.7,6.7C18.5,16.7,20.5,18.9,21.3,21.6z M17.6,8.9c-0.1-3.1-2.7-5.6-5.8-5.5S6.3,6.1,6.4,9.2c0.1,3,2.6,5.5,5.6,5.5C15.1,14.6,17.7,12,17.6,8.9L17.6,8.9z"/>
</svg>
