<svg xmlns="http://www.w3.org/2000/svg" viewBox="0 0 24 24">
	<path class="st0" d="M22.2,14.6L9.4,17.2c-0.1,0-0.1,0-0.2,0c-0.5,0-0.9-0.3-1-0.7L5.7,6.8c0,0,0,0,0-0.1L4.8,3.5H2c-0.6,0-1-0.4-1.1-0.9c0-0.6,0.4-1,0.9-1.1h0.1h3.5c0.5,0,0.9,0.3,1,0.7l0.9,3.3L22,5.4c0.3,0,0.5,0.1,0.7,0.3C22.9,5.8,23,6.1,23,6.4v7.3C23,14.1,22.7,14.5,22.2,14.6z M7.4,19.1c0.9,0,1.7,0.8,1.7,1.7s-0.8,1.7-1.7,1.7s-1.7-0.8-1.7-1.7C5.7,19.8,6.4,19.1,7.4,19.1L7.4,19.1z M17.7,19.1c0.9,0,1.7,0.8,1.7,1.7c0,0.9-0.8,1.7-1.7,1.7c-0.9,0-1.7-0.8-1.7-1.7C16,19.8,16.8,19.1,17.7,19.1L17.7,19.1z"/>
</svg>
