<svg xmlns="http://www.w3.org/2000/svg" viewBox="0 0 10 12">
  <path fill="#D40000" d="M9.2,12c-0.4,0-0.8-0.3-0.8-0.8c0,0,0,0,0,0V0.8C8.4,0.3,8.8,0,9.2,0S10,0.3,10,0.8v10.4C10,11.6,9.6,12,9.2,12z"/>
  <path fill="#D40000" d="M5,12c-0.4,0-0.8-0.3-0.8-0.8V2.9c0-0.4,0.4-0.8,0.8-0.8s0.8,0.4,0.8,0.8v8.3C5.8,11.6,5.4,12,5,12z"/>
  <path fill="#D40000" d="M0.8,12C0.4,12,0,11.6,0,11.2V4.9c0-0.4,0.4-0.8,0.8-0.8s0.8,0.4,0.8,0.8v6.3C1.6,11.6,1.2,12,0.8,12z"/>
</svg>
