<?xml version="1.0" encoding="utf-8"?>
<!-- Generator: Adobe Illustrator 22.1.0, SVG Export Plug-In . SVG Version: 6.00 Build 0)  -->
<svg version="1.1" id="Слой_1" xmlns="http://www.w3.org/2000/svg" xmlns:xlink="http://www.w3.org/1999/xlink" x="0px" y="0px"
	 viewBox="0 0 4.5 7.5" style="enable-background:new 0 0 4.5 7.5;" xml:space="preserve">
<style type="text/css">
	.st0{fill:#FFB600;}
</style>
<g transform="translate(-368.75 -1719.287)">
	<g>
		<path class="st0" d="M369.5,1726.8c-0.2,0-0.4-0.1-0.5-0.2c-0.3-0.3-0.3-0.8,0-1.1l2.5-2.5l-2.5-2.5c-0.3-0.3-0.3-0.8,0-1.1
			s0.8-0.3,1.1,0l3,3c0.3,0.3,0.3,0.8,0,1.1l-3,3C369.9,1726.7,369.7,1726.8,369.5,1726.8z"/>
	</g>
</g>
</svg>
