<?xml version="1.0" encoding="utf-8"?>
<!-- Generator: Adobe Illustrator 22.1.0, SVG Export Plug-In . SVG Version: 6.00 Build 0)  -->
<svg version="1.1" id="Слой_1" xmlns="http://www.w3.org/2000/svg" xmlns:xlink="http://www.w3.org/1999/xlink" x="0px" y="0px"
	 viewBox="0 0 3.6 6" style="enable-background:new 0 0 3.6 6;" xml:space="preserve">
<style type="text/css">
	.st0{fill:#CCCCCC;}
</style>
<g>
	<path class="st0" d="M0.6,6C0.4,6,0.3,6,0.2,5.8c-0.2-0.2-0.2-0.6,0-0.8l2-2l-2-2C0,0.8,0,0.4,0.2,0.2s0.6-0.2,0.8,0l2.4,2.4
		c0.2,0.2,0.2,0.6,0,0.8L1,5.8C0.9,6,0.8,6,0.6,6z"/>
</g>
</svg>
