<svg xmlns="http://www.w3.org/2000/svg" viewBox="0 0 14 14">
	<path fill="#CCCCCC" d="M12,7.1c0,0.5-0.1,1-0.3,1.5c-0.2,0.4-0.5,0.8-0.9,1c-0.4,0.2-0.9,0.4-1.4,0.4c-1,0-2-0.7-2.4-1.6C6.6,9.2,5.7,9.8,4.6,9.9c-0.7,0-1.4-0.3-1.9-0.8C2.2,8.5,2,7.8,2,7V7c0-0.5,0.1-1,0.3-1.4c0.2-0.4,0.5-0.8,0.9-1c0.4-0.2,0.9-0.4,1.4-0.4c0.5,0,0.9,0.1,1.3,0.4c0.4,0.3,0.8,0.7,1,1.2c0.2-0.5,0.6-0.9,1-1.2c0.4-0.3,0.9-0.4,1.3-0.4c0.7,0,1.4,0.3,1.9,0.8C11.8,5.5,12,6.3,12,7.1z M3.4,7.1c0,0.4,0.1,0.8,0.3,1.2C4,8.5,4.3,8.7,4.7,8.6c0.6,0,1.1-0.4,1.3-0.9C6.1,7.5,6.2,7.3,6.2,7V6.9C6.2,6.6,6.1,6.4,5.9,6.1C5.8,5.9,5.6,5.7,5.4,5.6C5.2,5.4,4.9,5.4,4.7,5.4C4.3,5.4,4,5.5,3.8,5.8C3.5,6.2,3.4,6.6,3.4,7.1z M10.6,7c0-0.4-0.1-0.8-0.3-1.2C10,5.5,9.6,5.4,9.3,5.4c-0.5,0-1,0.3-1.2,0.8C7.9,6.4,7.8,6.6,7.7,6.9V7c0,0.2,0.1,0.3,0.2,0.5C8,7.8,8.1,8,8.3,8.1c0.1,0.2,0.3,0.3,0.5,0.4c0.2,0.1,0.3,0.1,0.5,0.1c0.4,0,0.7-0.2,0.9-0.4C10.5,7.8,10.6,7.4,10.6,7L10.6,7z"/>
</svg>
